amail,mdp,niveau,poids,aile6,aile7,aile8,aile9,aile10,aile11,aile12,aile13,aile14,aile15,aile16,aile17,planche1,planche2,planche3
la,la,Beginner,70,0,0,0,0,0,0,0,0,0,0,0,0,0,1,0
su,su,Intermediate,69,0,0,0,0,0,0,0,0,0,0,0,0,0,1,0
pi,pi,Advanced,82,0,0,0,0,0,0,0,0,0,0,0,0,0,1,0
trucmuche,lalala
ar@gmail.com,ar,6,,,,10,,,13,,,16,,twintip,,
ri@gmail.com,ar
al@gmail.com,123456
azerty@gmail.com,az
aq@gmail.com,az
ben@gmail.com,ducas,1,65,6,,,9,,,12,,,,,,,foil,

arthru@gmail.com,arthur,2,87,6,,,,10,,,13,,,16,17,twintip,foil,surf

arthur@gmail.com,arthur,3,56,6,,,,10,,,13,,,16,17,twintip,foil,surf

emile@gmail.com,emile,3,65,6,7,8,,,,,,,,,,twintip,foil,surf


compte@gmail.com,compte,3,65,,7,,,,11,,,,,16,,twintip,foil,

azert@gmail.com,azer,2,67,6,,,,10,11,,,14,,,,twintip,foil,
